1 10 20
100 200 125
201 210 89
900 1000 174
1317 79 182
356 669 145
99 242 128
1311 294 182
2488 644 209
1075 403 179
858 347 171
640 674 145
2005 499 182
3400 97 217
3216 493 217
1860 472 182
751 233 171
563 629 132
3194 85 217
1234 621 182
1934 576 182
3573 120 217
4044 154 238
1117 111 179
732 143 171
2768 218 209
2667 229 209
898 533 179
2830 676 209
460 249 144
1740 123 182
394 674 145
689 597 145
4182 288 238
2578 617 209
3957 336 238
636 540 137
3097 383 217
1364 44 182
3624 670 217
4130 150 238
678 97 145
425 154 144
11 329 144
2572 368 209
3123 637 217
3594 107 217
2811 327 209
1789 356 182
1077 81 179
519 36 144
3570 186 217
3422 234 217
776 363 171
4170 453 238
2422 307 183
2064 486 182
2622 428 209
246 598 144
924 414 179
4310 427 238
1542 114 182
2031 679 182
3260 237 217
3036 245 217
1115 262 179
4118 264 238
2782 183 209
4190 586 238
2828 458 209
33 593 144
592 405 142
3187 329 217
31 476 144
819 94 171
4175 100 238
1752 99 182
1218 491 182
2842 197 209
2245 186 183
3732 595 238
2227 505 183
1043 591 179
319 243 131
3180 425 217
2241 134 183
968 107 179
4064 173 238
585 619 132
1985 550 182
2808 634 209
2158 173 182
1106 378 179
2124 571 182
573 539 137
1249 374 182
2247 489 183
1053 148 179
2462 664 183
3615 183 217
1296 680 182
2634 139 209
4166 213 238
1610 624 182
47 172 125
618 378 142
3358 357 217
605 406 142
2007 125 182
2907 82 209
4023 129 238
4215 560 238
2982 266 217
389 67 144
2153 554 182
2954 159 217
3831 449 238
1761 460 182
4057 687 238
1887 665 182
1821 599 182
1295 465 182
2892 544 209
980 452 179
3643 517 217
1811 449 182
2923 659 217
435 481 129
1217 690 182
3999 271 238
3953 385 238
2200 527 182
1566 49 182
2033 214 182
1085 275 179
1565 511 182
3874 602 238
517 556 137
3317 528 217
2543 82 209
2477 541 209
1245 531 182
4321 500 238
3828 371 238
186 186 19
2368 228 183
3862 370 238
4042 198 238
2253 94 183
2906 157 209
876 367 179
3231 490 217
3297 305 217
1051 427 179
1059 31 179
2152 504 182
3539 388 217
1883 411 182
3535 334 217
4189 687 238
2421 138 183
1770 411 182
3604 543 217
3366 191 217
1945 349 182
1141 589 179
1131 580 179
2407 330 183
806 379 171
2374 558 183
125 79 119
465 124 144
768 490 171
2743 139 209
3143 210 217
2179 253 182
3012 444 217
3196 99 217
3416 55 217
1149 604 179
2013 29 182
863 360 171
4256 40 238
2271 634 183
1693 502 182
2331 578 183
3126 644 217
1298 33 182
3944 294 238
4347 657 238
1955 228 182
1890 697 182
4274 320 238
626 241 144
1989 517 182
339 361 126
4213 195 238
3331 340 217
1683 655 182
4316 455 238
1208 648 182
2448 275 183
1870 371 182
1462 659 182
